[
	{
		"model":"domiciles.domicile",
		"pk": 1,
		"fields":{
			"address":"PIEROLA 106 INT 8",
			"district": "AREQUIPA",
			"province": "AREQUIPA",
			"department": "AREQUIPA"
		}
	},
	{
		"model":"local.company",
		"pk": "20272434019",
		"fields":{
			"razon_social":"IMPRESORES Y SELLOS EL MISTI EIRL",
			"email":"impelmisti@gmail.com",
			"telephone":"054282587"
		}
	},
	{
		"model":"local.series",
		"pk": 1,
		"fields":{
			"company":"20272434019",
			"domicile":1,
			"number":1
		}
	},
	{
		"model":"local.numbering",
		"pk": 1,
		"fields":{
			"document":1,
			"series":1,
			"number":1
		}
	}
]